{
  "type": "service_account",
  "project_id": "diachidoinfo",
  "private_key_id": "1450536186e2733a7a53b8847c5610cdb6c39b6f",
  "private_key": "-----BEGIN PRIVATE KEY-----\nMIIEvgIBADANBgkqhkiG9w0BAQEFAASCBKgwggSkAgEAAoIBAQDR9p/hrRLX89nY\n2JjDYpGYeQFToGs6Q4ly4+cmb4aFQIF1Ly4RO8VRIbGlmWrVn+Bg8lWAqTW5wxjx\ngbIifvsLY9EmoG+mJ2RGLCiFfpiOaWK4fiRV+Vki4PHA3qPdWdNe+B+wxgcXqHbF\nXvC2RKY7XcpbIVU2/aWzcdCbM2+58PKvGdOzh+hQtSrl7gZO4iL62ljWGftTOi+b\n/JRXl41VqodBhu9NYe7ba4EU4teTfjIhCqy0HtrdZWrx5t7QrO3RZ9tQWVsOSBos\ngxf0QnBik84biQkjqMq7ihDEZ9Mr+mE1P6gsXSfxkGs0zRROkKUq9zbKofE/s21L\niPRv/+DdAgMBAAECggEADDYHM2VQ8L1OYKWsMMTVSeRTtuzf/5n47vUhNuOKk8pe\nHRYa3Ea5IZBPmB11kKoFLy442cw9gym9FCKiXQ48hHuQKOpww92Ln+cmjikAL1wi\nsS8o5tUjIXuqo7hvGEsGl4HfufSyaeZSzgTJBBi3AEHiqG0mWxXiYq7OXpBdwZcO\nTsJsJ9WgqkPecY11EdBgsohNrHEvgkXnhXj/jfrpEnaTn8h8JN8qxt7d1pKW/81I\npcQbd0RcG3j0+Hs+b7tuod/7V9pYPUVLqwEIb3FioV8VJjfjUYgGh/qAFPKwhOZb\nnu8kJk+NJtCd/7U5NY20hDUWRkr6roAXslqGAgNZowKBgQDzH35uO4ttYyKc2rWr\nvGGtaC431ZA5BaqzwflJygfpII3zrf0ULqgFPcmSAKYd99m4xS1UkrkZIu4vPmlZ\nyT00p8Afk8d6cXYzqz4OlY5IW9fzLeBMvdzS7Vz6DhGirVYfCuSVa4eb1EZRlh7C\nXEgqQSMOXqXhk5CGP6WIFav+awKBgQDdFYTVpp0J3NiYFx1yKaB/DJxUzbQcI58l\np0Sst1+ul80DcwXyziye5FkLsgvsuln9xYgpy4FE8mBeBtPu4gjEqTG1ortySTsE\nm8C5rhrhayGkgR4jXgQdJiB1JmIuPRjBSht2VC5XmalJHgtzPeIdoHo5lzA3eBk3\nrowvXUrf1wKBgD6a4YepNaIZYRRbDWUHwW9R4HToPZcxal+Xl4X0zEyv4V3ac8z6\nprGS05ERMbWN2TbHL4ETty5N3F+2BpLkSyp/9+0ptLhG91Uex4Ah6t2fKOCp85RP\nX8nA7axGaywkzoR33ZzMb8Mkyma/7XPHJ54Z39kXbkfEI/ct9IYybnO5AoGBALmn\nKmcnhNQVaqU9M/L8VdSayGTGYKsIlspNznOjgWvh+b0dyC7/R6UeaFBT8YOXcZ6T\nVCaUyDcXuij7XtlJYseStTWsM/Bi4naaPJswQ05sYlH8Q0y71ISN0c/Orb/aeoFG\nNA2H32qclPXbjw31N35dloXqGglahwKlRv83Pnr9AoGBANiIrKOF+M6kOStccfe+\ncPjjJcXrVKoGSESzcOfBrungisRi8Tri3PjY7+vKCbORq6mxgN181JhTmxft4Xnh\ngi9ndi/e7Wbn4KMnB1UyXSAg50hWF0c0vaLjLGiB5wp7K5CIquzk8jCEbIiQUOYh\nZ1FeA773AAjW5ylzWYULUFmD\n-----END PRIVATE KEY-----\n",
  "client_email": "diachido-info@diachidoinfo.iam.gserviceaccount.com",
  "client_id": "108016916970450253192",
  "auth_uri": "https://accounts.google.com/o/oauth2/auth",
  "token_uri": "https://accounts.google.com/o/oauth2/token",
  "auth_provider_x509_cert_url": "https://www.googleapis.com/oauth2/v1/certs",
  "client_x509_cert_url": "https://www.googleapis.com/robot/v1/metadata/x509/diachido-info%40diachidoinfo.iam.gserviceaccount.com"
}
